<?xml version="1.0" encoding="UTF-8" standalone="no"?>
<svg width="64px" height="64px" viewBox="0 0 64 64" version="1.1" xmlns="http://www.w3.org/2000/svg" xmlns:xlink="http://www.w3.org/1999/xlink">
    <!-- Generator: Sketch 41.2 (35397) - http://www.bohemiancoding.com/sketch -->
    <title>Group 12</title>
    <desc>Created with Sketch.</desc>
    <defs></defs>
    <g id="Page-1" stroke="none" stroke-width="1" fill="none" fill-rule="evenodd">
        <g id="Group-12">
            <g id="Group-15">
                <path d="M64,32 C64,49.67 49.673,64 32,64 C14.327,64 0,49.67 0,32 C0,14.33 14.327,0 32,0 C49.673,0 64,14.33 64,32" id="Fill-331" fill="#B95756"></path>
                <path d="M19.5,52 C15.829,52 12.756,49.44 11.977,46 L12.737,46 C14.049,48.38 16.586,50 19.5,50 C22.414,50 24.951,48.38 26.263,46 L27.023,46 C26.244,49.44 23.172,52 19.5,52" id="Fill-332" fill="#974D4C"></path>
                <path d="M47.357,52 C43.395,52 40.13,49.01 39.693,45.17 L40.097,44.9 C41.168,47.87 44.014,50 47.357,50 C51.03,50 54.103,47.43 54.881,44 L54.998,44 L55.066,44 C55.07,44.09 55.072,44.19 55.072,44.29 C55.072,48.55 51.618,52 47.357,52 M50.935,43.29 C50.497,41.72 49.059,40.57 47.357,40.57 C47.052,40.57 46.756,40.61 46.472,40.68 L49.042,38.98 C50.246,39.59 51.071,40.84 51.071,42.29 C51.071,42.63 51.024,42.97 50.935,43.29 M43.779,43.29 C43.713,43.05 43.669,42.8 43.652,42.55 L44.385,42.06 C44.113,42.42 43.905,42.84 43.779,43.29" id="Fill-333" fill="#974D4C"></path>
                <path d="M19.5,34.57 C15.24,34.57 11.786,38.03 11.786,42.29 C11.786,46.55 15.24,50 19.5,50 C23.761,50 27.214,46.55 27.214,42.29 C27.214,38.03 23.761,34.57 19.5,34.57 M19.5,38.57 C21.548,38.57 23.214,40.24 23.214,42.29 C23.214,44.33 21.548,46 19.5,46 C17.452,46 15.786,44.33 15.786,42.29 C15.786,40.24 17.452,38.57 19.5,38.57" id="Fill-334" fill="#4C5665"></path>
                <path d="M47.357,34.57 C43.097,34.57 39.643,38.03 39.643,42.29 C39.643,46.55 43.097,50 47.357,50 C51.618,50 55.072,46.55 55.072,42.29 C55.072,38.03 51.618,34.57 47.357,34.57 M47.357,38.57 C49.405,38.57 51.071,40.24 51.071,42.29 C51.071,44.33 49.405,46 47.357,46 C45.309,46 43.643,44.33 43.643,42.29 C43.643,40.24 45.309,38.57 47.357,38.57" id="Fill-335" fill="#4C5665"></path>
                <path d="M55.066,44 C55.058,43.76 55.038,43.52 55.007,43.29 C55.05,42.96 55.072,42.62 55.072,42.29 C55.072,39.35 53.428,36.79 51.01,35.49 C50.982,35.44 50.951,35.39 50.918,35.34 C50.533,34.75 49.897,34.44 49.248,34.44 C49.054,34.44 48.86,34.47 48.67,34.52 C48.707,34.26 48.738,33.97 48.757,33.66 C51.196,34.34 55.553,36.26 56.934,41.49 C57.216,42.56 56.578,43.65 55.51,43.93 C55.362,43.97 55.213,43.99 55.066,44" id="Fill-336" fill="#974D4C"></path>
                <path d="M54.998,44 L54.881,44 C54.934,43.76 54.976,43.53 55.007,43.29 C55.038,43.52 55.058,43.76 55.066,44 L54.998,44" id="Fill-337" fill="#7D4140"></path>
                <path d="M54.881,44 C54.042,43.95 53.292,43.37 53.066,42.51 C52.521,40.44 51.189,39.18 49.878,38.42 L50.354,38.11 C51.225,37.53 51.498,36.39 51.01,35.49 C53.428,36.79 55.072,39.35 55.072,42.29 C55.072,42.62 55.05,42.96 55.007,43.29 C54.976,43.53 54.934,43.76 54.881,44" id="Fill-338" fill="#414A55"></path>
                <path d="M37.232,42 L35.86,42 C35.655,39.91 34.952,36.7 32.671,34.26 C32.377,33.95 32.067,33.66 31.742,33.39 C32.662,33.21 33.357,32.4 33.357,31.43 C33.357,31.09 33.274,30.78 33.128,30.5 C33.253,30.74 33.332,31 33.352,31.29 C33.375,31.59 33.968,38.75 39.166,38.75 C39.66,38.75 40.136,38.69 40.588,38.58 C40.307,39.09 40.083,39.64 39.923,40.22 L37.232,42 M44.414,35.15 C44.47,35 44.52,34.85 44.564,34.69 C45.71,30.54 42.974,23.75 31.942,17 L29.393,17 C28.289,17 27.393,16.1 27.393,15 C27.393,13.9 28.289,13 29.393,13 L32.5,13 C32.862,13 33.217,13.1 33.527,13.28 C47.329,21.55 49.014,29.55 48.757,33.66 C47.817,33.4 47.162,33.33 47.072,33.32 C46.996,33.31 46.921,33.31 46.846,33.31 C45.877,33.31 45.049,34.01 44.889,34.97 C44.728,35.03 44.57,35.09 44.414,35.15 M33.126,30.5 C33.124,30.49 33.121,30.49 33.118,30.48 C33.121,30.49 33.124,30.49 33.126,30.5 M33.113,30.47 C33.112,30.47 33.111,30.47 33.109,30.46 C33.111,30.47 33.112,30.47 33.113,30.47" id="Fill-339" fill="#974D4C"></path>
                <path d="M39.923,40.22 C40.083,39.64 40.307,39.09 40.588,38.58 C42.363,38.15 43.771,36.91 44.414,35.15 C44.57,35.09 44.728,35.03 44.889,34.97 C44.882,35.01 44.877,35.06 44.872,35.1 C44.811,35.67 45.001,36.22 45.354,36.62 L39.923,40.22" id="Fill-340" fill="#414A55"></path>
                <path d="M44.889,34.97 C45.049,34.01 45.877,33.31 46.846,33.31 C46.921,33.31 46.996,33.31 47.072,33.32 C47.162,33.33 47.817,33.4 48.757,33.66 C48.738,33.97 48.707,34.26 48.67,34.52 C48.572,34.55 48.474,34.59 48.379,34.64 C48.045,34.59 47.703,34.57 47.357,34.57 C46.494,34.57 45.664,34.71 44.889,34.97" id="Fill-341" fill="#7D4140"></path>
                <path d="M45.354,36.62 C45.001,36.22 44.811,35.67 44.872,35.1 C44.877,35.06 44.882,35.01 44.889,34.97 C45.664,34.71 46.494,34.57 47.357,34.57 C47.703,34.57 48.045,34.59 48.379,34.64 C48.299,34.68 48.221,34.72 48.145,34.77 L45.354,36.62" id="Fill-342" fill="#3A4048"></path>
                <path d="M37.834,46 L33.929,46 C34.983,46 35.856,45.18 35.924,44.13 C35.93,44.04 35.974,43.28 35.874,42.15 C36.839,42.53 37.931,42.75 39.166,42.75 C39.33,42.75 39.494,42.75 39.656,42.74 C39.667,42.92 39.684,43.11 39.707,43.29 C39.665,43.61 39.643,43.95 39.643,44.29 C39.643,44.58 39.66,44.88 39.693,45.17 L38.938,45.67 C38.61,45.88 38.226,46 37.834,46 M9.473,46 L9.47,46 L9.473,46 M9.444,46 L9.441,46 L9.444,46 M9.415,46 L9.412,46 L9.415,46 M9.386,46 L9.383,46 L9.386,46 M9.356,45.99 L9.355,45.99 L9.356,45.99 M7.527,44.33 L7.526,44.32 L7.527,44.33 M7.523,44.3 C7.522,44.3 7.522,44.29 7.521,44.29 C7.522,44.29 7.522,44.3 7.523,44.3 M7.519,44.28 C7.518,44.27 7.518,44.26 7.517,44.26 C7.518,44.26 7.518,44.27 7.519,44.28 M7.515,44.25 C7.515,44.24 7.514,44.24 7.513,44.23 C7.514,44.24 7.515,44.24 7.515,44.25 M7.512,44.22 C7.511,44.21 7.511,44.21 7.51,44.2 C7.511,44.21 7.511,44.21 7.512,44.22 M7.509,44.19 L7.507,44.17 L7.509,44.19 M7.507,44.16 L7.504,44.13 L7.507,44.16 M7.504,44.13 C7.49,43.92 7.509,43.71 7.563,43.5 C8.31,40.6 10.859,35.81 15.824,33.43 L15.91,33.43 C10.354,36.89 7.8,42.88 7.653,43.23 C7.533,43.52 7.484,43.83 7.504,44.13 M44.385,42.06 C44.893,41.38 45.626,40.89 46.472,40.68 L44.385,42.06" id="Fill-343" fill="#974D4C"></path>
                <path d="M39.693,45.17 C39.66,44.88 39.643,44.58 39.643,44.29 C39.643,43.95 39.665,43.61 39.707,43.29 C39.78,43.84 39.912,44.38 40.097,44.9 L39.693,45.17 M43.652,42.55 C43.646,42.46 43.643,42.37 43.643,42.29 C43.643,42.07 43.661,41.85 43.698,41.65 C45.071,40.93 46.248,39.88 47.123,38.58 C47.2,38.57 47.278,38.57 47.357,38.57 C47.963,38.57 48.536,38.72 49.042,38.98 L46.472,40.68 C45.626,40.89 44.893,41.38 44.385,42.06 L43.652,42.55" id="Fill-344" fill="#7D4140"></path>
                <path d="M40.097,44.9 C39.912,44.38 39.78,43.84 39.707,43.29 C39.684,43.11 39.667,42.92 39.656,42.74 C41.11,42.67 42.481,42.29 43.698,41.65 C43.661,41.85 43.643,42.07 43.643,42.29 C43.643,42.37 43.646,42.46 43.652,42.55 L40.097,44.9 M49.042,38.98 C48.536,38.72 47.963,38.57 47.357,38.57 C47.278,38.57 47.2,38.57 47.123,38.58 C47.349,38.24 47.554,37.89 47.738,37.53 C48.331,37.69 49.101,37.97 49.878,38.42 L49.042,38.98" id="Fill-345" fill="#414A55"></path>
                <path d="M51.01,35.49 C50.285,35.1 49.489,34.82 48.648,34.68 C48.655,34.63 48.663,34.58 48.67,34.52 C48.86,34.47 49.054,34.44 49.248,34.44 C49.897,34.44 50.533,34.75 50.918,35.34 C50.951,35.39 50.982,35.44 51.01,35.49" id="Fill-346" fill="#7D4140"></path>
                <path d="M49.878,38.42 C49.101,37.97 48.331,37.69 47.738,37.53 C48.018,36.97 48.247,36.38 48.419,35.75 C48.498,35.47 48.581,35.11 48.648,34.68 C49.489,34.82 50.285,35.1 51.01,35.49 C51.498,36.39 51.225,37.53 50.354,38.11 L49.878,38.42" id="Fill-347" fill="#3A4048"></path>
                <path d="M48.648,34.68 C48.558,34.66 48.469,34.65 48.379,34.64 C48.474,34.59 48.572,34.55 48.67,34.52 C48.663,34.58 48.655,34.63 48.648,34.68" id="Fill-348" fill="#673938"></path>
                <path d="M47.738,37.53 C47.099,37.35 46.666,37.3 46.651,37.3 C46.128,37.24 45.674,36.99 45.354,36.62 L48.145,34.77 C48.221,34.72 48.299,34.68 48.379,34.64 C48.469,34.65 48.558,34.66 48.648,34.68 C48.581,35.11 48.498,35.47 48.419,35.75 C48.247,36.38 48.018,36.97 47.738,37.53" id="Fill-349" fill="#34393F"></path>
                <path d="M39.166,42.75 C37.931,42.75 36.839,42.53 35.874,42.15 C35.87,42.1 35.865,42.05 35.86,42 L37.232,42 L39.923,40.22 C39.741,40.88 39.643,41.57 39.643,42.29 C39.643,42.44 39.647,42.59 39.656,42.74 C39.494,42.75 39.33,42.75 39.166,42.75" id="Fill-350" fill="#7D4140"></path>
                <path d="M43.698,41.65 C43.988,39.98 45.398,38.69 47.123,38.58 C46.248,39.88 45.071,40.93 43.698,41.65" id="Fill-351" fill="#673938"></path>
                <path d="M39.656,42.74 C39.647,42.59 39.643,42.44 39.643,42.29 C39.643,41.57 39.741,40.88 39.923,40.22 L45.354,36.62 C45.674,36.99 46.128,37.24 46.651,37.3 C46.666,37.3 47.099,37.35 47.738,37.53 C47.554,37.89 47.349,38.24 47.123,38.58 C45.398,38.69 43.988,39.98 43.698,41.65 C42.481,42.29 41.11,42.67 39.656,42.74" id="Fill-352" fill="#3A4048"></path>
                <path d="M31.308,42 L27.209,42 C27.122,39.6 25.942,37.49 24.154,36.13 C28.475,36.8 30.442,39.83 31.308,42 M22.426,42 L16.574,42 C17.255,41.13 18.313,40.57 19.5,40.57 C20.687,40.57 21.745,41.13 22.426,42" id="Fill-353" fill="#7D4140"></path>
                <path d="M23.203,42 L22.426,42 C21.745,41.13 20.687,40.57 19.5,40.57 C18.313,40.57 17.255,41.13 16.574,42 L15.796,42 C15.943,40.08 17.548,38.57 19.5,38.57 C21.452,38.57 23.057,40.08 23.203,42" id="Fill-354" fill="#673938"></path>
                <path d="M27.209,42 L23.203,42 C23.057,40.08 21.452,38.57 19.5,38.57 C17.548,38.57 15.943,40.08 15.796,42 L12.898,42 C14.018,40.32 15.754,38.24 18.142,36.78 C19.341,36.3 20.737,36 22.357,36 C22.997,36 23.595,36.05 24.154,36.13 C25.942,37.49 27.122,39.6 27.209,42" id="Fill-355" fill="#3A4048"></path>
                <path d="M31.836,42 L27.209,42 L31.308,42 C30.442,39.83 28.475,36.8 24.154,36.13 C23.633,35.74 23.06,35.41 22.448,35.15 C23.058,35.05 23.694,35 24.357,35 C26.718,35 28.477,35.65 29.738,36.98 C31.133,38.46 31.65,40.52 31.836,42" id="Fill-356" fill="#7D4140"></path>
                <path d="M18.142,36.78 C19.396,36.01 20.83,35.42 22.448,35.15 C23.06,35.41 23.633,35.74 24.154,36.13 C23.595,36.05 22.997,36 22.357,36 C20.737,36 19.341,36.3 18.142,36.78" id="Fill-357" fill="#3A4048"></path>
                <path d="M11.977,46 L9.5,46 L9.473,46 L9.5,46 L11.977,46 M9.47,46 L9.444,46 L9.47,46 M9.441,46 L9.415,46 L9.441,46 M9.412,46 L9.386,46 L9.412,46 M9.383,46 C9.374,46 9.365,46 9.356,45.99 C9.365,46 9.374,46 9.383,46 M9.355,45.99 C8.742,45.95 8.18,45.63 7.836,45.11 C7.681,44.88 7.579,44.62 7.531,44.35 C7.587,44.67 7.719,44.97 7.92,45.23 C8.269,45.68 8.791,45.95 9.355,45.99 M7.531,44.35 C7.529,44.34 7.528,44.34 7.527,44.33 C7.528,44.34 7.529,44.34 7.531,44.35 M7.526,44.32 C7.525,44.31 7.524,44.31 7.523,44.3 C7.524,44.31 7.525,44.31 7.526,44.32 M7.521,44.29 C7.52,44.29 7.52,44.28 7.519,44.28 C7.52,44.28 7.52,44.29 7.521,44.29 M7.517,44.26 C7.516,44.26 7.516,44.25 7.515,44.25 C7.516,44.25 7.516,44.26 7.517,44.26 M7.513,44.23 L7.512,44.22 L7.513,44.23 M7.51,44.2 L7.509,44.19 L7.51,44.2 M7.507,44.17 L7.507,44.16 L7.507,44.17 M29.741,33.98 C29.428,33.79 29.101,33.6 28.76,33.43 L29.619,33.43 C29.656,33.61 29.696,33.79 29.741,33.98" id="Fill-358" fill="#974D4C"></path>
                <path d="M35.86,42 L35.55,42 C34.807,39.35 33.04,36.05 29.741,33.98 C29.696,33.79 29.656,33.61 29.619,33.43 L31.357,33.43 C31.489,33.43 31.617,33.42 31.742,33.39 C32.067,33.66 32.377,33.95 32.671,34.26 C34.952,36.7 35.655,39.91 35.86,42" id="Fill-359" fill="#7D4140"></path>
                <path d="M12.898,42 L12.496,42 C13.473,40.22 15.224,37.95 18.142,36.78 C15.754,38.24 14.018,40.32 12.898,42" id="Fill-360" fill="#3A4048"></path>
                <path d="M33.929,46 L27.023,46 C27.148,45.45 27.214,44.87 27.214,44.29 C27.214,43.95 27.193,43.61 27.15,43.29 C27.193,42.96 27.214,42.62 27.214,42.29 C27.214,42.19 27.213,42.09 27.209,42 L31.836,42 C31.65,40.52 31.133,38.46 29.738,36.98 C28.477,35.65 26.718,35 24.357,35 C23.694,35 23.058,35.05 22.448,35.15 C21.54,34.78 20.544,34.57 19.5,34.57 C15.24,34.57 11.786,38.03 11.786,42.29 C11.786,42.62 11.808,42.96 11.85,43.29 C11.808,43.61 11.786,43.95 11.786,44.29 C11.786,44.87 11.852,45.45 11.977,46 L9.5,46 L9.473,46 L9.47,46 L9.444,46 L9.441,46 L9.415,46 L9.412,46 L9.386,46 L9.383,46 C9.374,46 9.365,46 9.356,45.99 L9.355,45.99 C8.791,45.95 8.269,45.68 7.92,45.23 C7.719,44.97 7.587,44.67 7.531,44.35 C7.529,44.34 7.528,44.34 7.527,44.33 L7.526,44.32 C7.525,44.31 7.524,44.31 7.523,44.3 C7.522,44.3 7.522,44.29 7.521,44.29 C7.52,44.29 7.52,44.28 7.519,44.28 C7.518,44.27 7.518,44.26 7.517,44.26 C7.516,44.26 7.516,44.25 7.515,44.25 C7.515,44.24 7.514,44.24 7.513,44.23 L7.512,44.22 C7.511,44.21 7.511,44.21 7.51,44.2 L7.509,44.19 C7.508,44.18 7.508,44.18 7.507,44.17 L7.507,44.16 L7.504,44.13 C7.484,43.83 7.533,43.52 7.653,43.23 C7.8,42.88 10.354,36.89 15.91,33.43 L28.76,33.43 C29.101,33.6 29.428,33.79 29.741,33.98 C30.472,37.05 32.284,40.73 35.874,42.15 C35.974,43.28 35.93,44.04 35.924,44.13 C35.856,45.18 34.983,46 33.929,46 M19.5,46 C17.798,46 16.36,44.85 15.922,43.29 C16.055,42.81 16.279,42.38 16.574,42 L22.426,42 C22.721,42.38 22.945,42.81 23.078,43.29 C22.64,44.85 21.202,46 19.5,46" id="Fill-361" fill="#7D4140"></path>
                <path d="M27.023,46 L26.263,46 C26.717,45.18 27.024,44.26 27.15,43.29 C27.193,43.61 27.214,43.95 27.214,44.29 C27.214,44.87 27.148,45.45 27.023,46 M12.737,46 L11.977,46 C11.852,45.45 11.786,44.87 11.786,44.29 C11.786,43.95 11.808,43.61 11.85,43.29 C11.976,44.26 12.283,45.18 12.737,46 M23.078,43.29 C22.945,42.81 22.721,42.38 22.426,42 L23.203,42 C23.211,42.09 23.214,42.19 23.214,42.29 C23.214,42.63 23.167,42.97 23.078,43.29 M15.922,43.29 C15.833,42.97 15.786,42.63 15.786,42.29 C15.786,42.19 15.789,42.09 15.796,42 L16.574,42 C16.279,42.38 16.055,42.81 15.922,43.29" id="Fill-362" fill="#673938"></path>
                <path d="M26.263,46 L12.737,46 C12.283,45.18 11.976,44.26 11.85,43.29 C11.808,42.96 11.786,42.62 11.786,42.29 C11.786,38.03 15.24,34.57 19.5,34.57 C20.544,34.57 21.54,34.78 22.448,35.15 C20.83,35.42 19.396,36.01 18.142,36.78 C15.224,37.95 13.473,40.22 12.496,42 L15.796,42 C15.789,42.09 15.786,42.19 15.786,42.29 C15.786,42.63 15.833,42.97 15.922,43.29 C16.36,44.85 17.798,46 19.5,46 C21.202,46 22.64,44.85 23.078,43.29 C23.167,42.97 23.214,42.63 23.214,42.29 C23.214,42.19 23.211,42.09 23.203,42 L27.209,42 C27.213,42.09 27.214,42.19 27.214,42.29 C27.214,42.62 27.193,42.96 27.15,43.29 C27.024,44.26 26.717,45.18 26.263,46" id="Fill-363" fill="#3A4048"></path>
                <path d="M35.874,42.15 C32.284,40.73 30.472,37.05 29.741,33.98 C33.04,36.05 34.807,39.35 35.55,42 L35.86,42 C35.865,42.05 35.87,42.1 35.874,42.15" id="Fill-364" fill="#673938"></path>
                <path d="M15.824,33.43 L13.357,33.43 C12.252,33.43 11.357,32.53 11.357,31.43 C11.357,30.32 12.252,29.43 13.357,29.43 L31.357,29.43 C32.112,29.43 32.769,29.85 33.109,30.46 C32.765,29.84 32.099,29.43 31.352,29.43 L31.219,29.43 C30.117,29.51 29.286,30.46 29.362,31.57 C29.371,31.69 29.382,31.82 29.395,31.96 C27.926,31.32 26.242,31 24.357,31 C21.133,31 18.42,31.92 16.179,33.26 C16.059,33.32 15.941,33.37 15.824,33.43 M33.128,30.5 L33.126,30.5 L33.128,30.5 M33.118,30.48 C33.116,30.48 33.115,30.47 33.113,30.47 C33.115,30.47 33.116,30.48 33.118,30.48" id="Fill-365" fill="#974D4C"></path>
                <path d="M31.742,33.39 C31.034,32.81 30.251,32.33 29.395,31.96 C29.382,31.82 29.371,31.69 29.362,31.57 C29.286,30.46 30.117,29.51 31.219,29.43 L31.352,29.43 C32.099,29.43 32.765,29.84 33.109,30.46 C33.111,30.47 33.112,30.47 33.113,30.47 C33.115,30.47 33.116,30.48 33.118,30.48 C33.121,30.49 33.124,30.49 33.126,30.5 L33.128,30.5 C33.274,30.78 33.357,31.09 33.357,31.43 C33.357,32.4 32.662,33.21 31.742,33.39" id="Fill-366" fill="#7D4140"></path>
                <path d="M15.91,33.43 L15.824,33.43 C15.941,33.37 16.059,33.32 16.179,33.26 C16.089,33.32 15.999,33.37 15.91,33.43" id="Fill-367" fill="#7D4140"></path>
                <path d="M29.619,33.43 L28.76,33.43 C27.017,32.55 24.901,32 22.357,32 C19.989,32 17.939,32.48 16.179,33.26 C18.42,31.92 21.133,31 24.357,31 C26.242,31 27.926,31.32 29.395,31.96 C29.441,32.41 29.514,32.91 29.619,33.43" id="Fill-368" fill="#7D4140"></path>
                <path d="M31.357,33.43 L29.619,33.43 C29.514,32.91 29.441,32.41 29.395,31.96 C30.251,32.33 31.034,32.81 31.742,33.39 C31.617,33.42 31.489,33.43 31.357,33.43" id="Fill-369" fill="#673938"></path>
                <path d="M28.76,33.43 L15.91,33.43 C15.999,33.37 16.089,33.32 16.179,33.26 C17.939,32.48 19.989,32 22.357,32 C24.901,32 27.017,32.55 28.76,33.43" id="Fill-370" fill="#673938"></path>
                <path d="M46.861,33.31 C46.861,33.31 53.417,34 55,40" id="Fill-371" fill="#D5925C"></path>
                <path d="M46.651,35.3 L46.72,34.64 L46.642,35.29 L46.651,35.3 L46.72,34.64 L46.642,35.29 C46.686,35.3 48.125,35.49 49.579,36.26 C50.309,36.65 51.039,37.16 51.649,37.84 C52.259,38.53 52.763,39.37 53.066,40.51 C53.348,41.58 54.442,42.22 55.51,41.93 C56.578,41.65 57.216,40.56 56.934,39.49 C56.456,37.67 55.569,36.19 54.531,35.07 C52.97,33.38 51.125,32.47 49.688,31.96 C48.245,31.45 47.181,31.33 47.072,31.32 C45.973,31.2 44.989,32 44.872,33.1 C44.756,34.19 45.553,35.18 46.651,35.3" id="Fill-372" fill="#F1CC84"></path>
                <path d="M33.929,42 C33.929,42 32.643,32 22.357,32 C12.071,32 9.5,42 9.5,42 L37.833,42 L49.25,34.44" id="Fill-373" fill="#D5925C"></path>
                <path d="M35.912,41.74 C35.883,41.58 35.542,38.83 33.682,35.92 C32.75,34.47 31.412,32.97 29.531,31.85 C27.654,30.72 25.251,30 22.357,30 C19.461,30 17.006,30.72 15.038,31.81 C12.076,33.46 10.23,35.88 9.115,37.85 C8,39.83 7.595,41.39 7.563,41.5 C7.408,42.1 7.539,42.73 7.919,43.23 C8.3,43.72 8.879,44 9.5,44 L37.833,44 C38.223,44 38.612,43.88 38.938,43.67 L50.354,36.11 C51.275,35.5 51.527,34.26 50.917,33.34 C50.308,32.41 49.067,32.16 48.146,32.77 L37.231,40 L9.5,40 L9.5,42 L11.437,42.5 L11.36,42.48 L11.437,42.5 L11.36,42.48 L11.437,42.5 C11.468,42.36 12.131,40.1 13.814,38.02 C14.654,36.98 15.734,35.98 17.113,35.24 C18.495,34.5 20.18,34 22.357,34 C24.606,34 26.221,34.53 27.478,35.28 C28.419,35.84 29.164,36.55 29.766,37.31 C30.667,38.45 31.231,39.72 31.552,40.7 C31.714,41.19 31.815,41.6 31.875,41.88 C31.904,42.02 31.923,42.12 31.934,42.19 L31.945,42.26 L31.958,42.25 L31.945,42.26 L31.958,42.25 L31.945,42.26 C32.086,43.35 33.088,44.12 34.184,43.98 C35.279,43.84 36.053,42.84 35.912,41.74" id="Fill-374" fill="#F1CC84"></path>
                <path d="M9.5,42 C9.5,42 14.071,31 24.357,31 C34.643,31 33.929,42 33.929,42 L9.5,42" id="Fill-375" fill="#D5925C"></path>
                <path d="M9.5,42 L11.347,42.77 L10.779,42.53 L11.345,42.77 L11.347,42.77 L10.779,42.53 L11.345,42.77 C11.359,42.73 12.473,40.15 14.674,37.71 C15.773,36.48 17.133,35.3 18.736,34.43 C20.344,33.56 22.18,33 24.357,33 C26.306,33 27.622,33.44 28.603,34.05 C29.338,34.51 29.9,35.09 30.355,35.75 C31.035,36.74 31.45,37.94 31.674,39.02 C31.901,40.11 31.94,41.07 31.939,41.55 C31.939,41.67 31.937,41.76 31.935,41.81 L31.933,41.87 L33.929,42 L33.929,40 L9.5,40 L9.5,42 L11.347,42.77 L9.5,42 L9.5,44 L33.929,44 C34.984,44 35.856,43.18 35.924,42.13 C35.927,42.09 35.939,41.89 35.939,41.55 C35.939,40.94 35.9,39.91 35.681,38.68 C35.348,36.83 34.625,34.47 32.854,32.46 C31.97,31.47 30.816,30.58 29.39,29.96 C27.965,29.34 26.284,29 24.357,29 C21.426,29 18.858,29.79 16.733,30.97 C13.538,32.73 11.309,35.28 9.847,37.38 C8.388,39.48 7.692,41.14 7.653,41.23 C7.396,41.85 7.465,42.55 7.836,43.11 C8.208,43.67 8.831,44 9.5,44 L9.5,42" id="Fill-376" fill="#F1CC84"></path>
                <path d="M13.357,31.43 L31.357,31.43 L31.357,29.43 L29.362,29.57 C29.378,29.7 29.533,32.2 30.753,34.92 C31.369,36.27 32.269,37.7 33.656,38.84 C35.035,39.98 36.939,40.76 39.167,40.75 C41.784,40.75 44.227,39.75 45.987,37.98 C47.753,36.21 48.81,33.69 48.804,30.85 C48.803,27.87 47.669,24.57 45.213,21.25 C42.752,17.92 38.969,14.54 33.527,11.28 C33.218,11.1 32.86,11 32.5,11 L29.393,11 C28.288,11 27.393,11.9 27.393,13 C27.393,14.1 28.288,15 29.393,15 L32.5,15 L32.5,13 L31.473,14.72 C36.57,17.77 39.939,20.84 41.995,23.63 C44.057,26.42 44.805,28.9 44.804,30.85 C44.798,32.72 44.149,34.15 43.153,35.15 C42.151,36.16 40.775,36.75 39.167,36.75 C37.811,36.74 36.948,36.35 36.189,35.75 C35.628,35.29 35.148,34.67 34.757,33.98 C34.168,32.94 33.796,31.73 33.594,30.8 C33.492,30.33 33.43,29.94 33.394,29.67 C33.377,29.53 33.366,29.43 33.359,29.37 L33.353,29.3 L33.352,29.29 L32.597,29.34 L33.352,29.29 L32.597,29.34 L33.352,29.29 C33.28,28.24 32.407,27.43 31.357,27.43 L13.357,27.43 C12.253,27.43 11.357,28.32 11.357,29.43 C11.357,30.53 12.253,31.43 13.357,31.43" id="Fill-377" fill="#F1CC84"></path>
            </g>
        </g>
    </g>
</svg>