<?xml version="1.0" encoding="UTF-8" standalone="no"?>
<svg width="64px" height="64px" viewBox="0 0 64 64" version="1.1" xmlns="http://www.w3.org/2000/svg" xmlns:xlink="http://www.w3.org/1999/xlink">
    <!-- Generator: Sketch 41.2 (35397) - http://www.bohemiancoding.com/sketch -->
    <title>Group 30</title>
    <desc>Created with Sketch.</desc>
    <defs></defs>
    <g id="Page-1" stroke="none" stroke-width="1" fill="none" fill-rule="evenodd">
        <g id="Group-30">
            <path d="M64,32 C64,49.67 49.673,64 32,64 C14.327,64 0,49.67 0,32 C0,14.33 14.327,0 32,0 C49.673,0 64,14.33 64,32" id="Fill-81" fill="#76ACC5"></path>
            <path d="M36.997,48 L30.997,48 C29.893,48 27.997,47.1 27.997,46 C27.997,44.89 27.893,44 28.997,44 L38.997,44 C40.102,44 39.998,44.89 39.998,46 C39.998,47.1 38.102,48 36.997,48" id="Fill-82" fill="#638DA1"></path>
            <path d="M34,42 C28.278,42 23.067,41.01 19.154,39.38 C16.545,40.74 13.768,42 13.183,42 L8.147,41.88 C6.915,41.88 6.467,41.14 7.15,40.24 L7.182,40 C7.258,39.92 7.333,39.84 7.407,39.76 C7.607,39.84 7.855,39.88 8.147,39.88 L13.183,40 C13.768,40 16.545,38.74 19.153,37.38 C23.066,39.01 28.278,40 34,40 C45.408,40 54.788,36.05 55.891,31 C55.963,31.33 56,31.66 56,32 C56,37.52 46.15,42 34,42 M12.055,32.71 C12.043,32.63 12.032,32.55 12.024,32.47 L12.387,32.51 C12.275,32.57 12.164,32.64 12.055,32.71 M12.162,28.78 C9.703,26.62 5.992,22.33 7,22 L12.814,22 C14.381,22 16.299,22.39 18.124,23.08 C14.914,24.6 12.751,26.58 12.162,28.78" id="Fill-83" fill="#638DA1"></path>
            <path d="M39.997,44 C39.997,45.1 38.102,46 36.997,46 L30.997,46 C29.893,46 27.997,45.1 27.997,44 C27.997,42.9 27.893,42 28.997,42 L38.997,42 C40.102,42 39.997,42.9 39.997,44" id="Fill-84" fill="#4C5665"></path>
            <path d="M14,28 C12.768,28 5.65,20.44 7,20 L12.814,20 C16,20 20.662,21.61 23,24 L20.033,24.24 C20.716,25.14 20.267,25.88 19.035,25.88 L14,28" id="Fill-85" fill="#B95756"></path>
            <path d="M13.183,40 C14.414,40 25.35,34.44 24,34 L14.369,32 C11.182,32 9.52,35.61 7.182,38 L7.15,38.24 C6.467,39.14 6.916,39.88 8.147,39.88 L13.183,40" id="Fill-86" fill="#B95756"></path>
            <path d="M56,30 C56,35.52 46.15,40 34,40 C21.85,40 12,35.52 12,30 C12,24.48 21.85,20 34,20 C46.15,20 56,24.48 56,30" id="Fill-87" fill="#FFFFFF"></path>
            <path d="M12.024,32.47 L7.448,31.9 L7.08,31.9 C6.458,31.9 6,31.84 6,31.17 C6,30.5 6.458,30.45 7.079,30.45 L7.448,30.45 L12.002,29.88 C12.001,29.92 12,29.96 12,30 C12,30.34 12.037,30.67 12.11,31 C12.037,31.33 12,31.66 12,32 C12,32.16 12.008,32.31 12.024,32.47" id="Fill-88" fill="#638DA1"></path>
            <path d="M12.387,32.51 L12.024,32.47 C12.008,32.31 12,32.16 12,32 C12,31.66 12.037,31.33 12.11,31 C12.213,31.48 12.389,31.94 12.632,32.39 C12.549,32.43 12.468,32.47 12.387,32.51" id="Fill-89" fill="#567686"></path>
            <path d="M12.725,32.56 L12.387,32.51 C12.468,32.47 12.549,32.43 12.632,32.39 C12.662,32.45 12.693,32.5 12.725,32.56" id="Fill-90" fill="#974D4C"></path>
            <path d="M19.03,33.34 L12.725,32.56 C12.693,32.5 12.662,32.45 12.632,32.39 C12.389,31.94 12.213,31.48 12.11,31 C12.037,30.67 12,30.34 12,30 C12,29.96 12.001,29.92 12.002,29.88 L19.03,29 C19.83,29 21.925,30.37 21.925,31.17 C21.925,31.97 19.83,33.34 19.03,33.34" id="Fill-91" fill="#CFCEC8"></path>
            <path d="M7,31 C6.2,31 6,30.63 6,29.83 C6,29.03 6.2,29 7,29 L19.03,28 C19.83,28 22,29.2 22,30 L21.926,30 C21.926,30.8 19.83,32 19.03,32 L7,31" id="Fill-92" fill="#B95756"></path>
        </g>
    </g>
</svg>