<?xml version="1.0" encoding="UTF-8" standalone="no"?>
<svg width="44px" height="46px" viewBox="0 0 44 46" version="1.1" xmlns="http://www.w3.org/2000/svg" xmlns:xlink="http://www.w3.org/1999/xlink">
    <!-- Generator: Sketch 41.2 (35397) - http://www.bohemiancoding.com/sketch -->
    <title>Page 1</title>
    <desc>Created with Sketch.</desc>
    <defs></defs>
    <g id="Home" stroke="none" stroke-width="1" fill="none" fill-rule="evenodd">
        <g id="HOME---DESKTOP-1280" transform="translate(-371.000000, -189.000000)">
            <g id="Page-1" transform="translate(371.000000, 189.000000)">
                <path d="M34.5782697,9.0551697 C32.5117545,9.0551697 30.8369364,7.37895758 30.8369364,5.31174545 C30.8369364,3.2452303 32.5117545,1.57041212 34.5782697,1.57041212 C36.6468758,1.57041212 38.320997,3.2452303 38.320997,5.31174545 C38.320997,7.37895758 36.6468758,9.0551697 34.5782697,9.0551697" id="Fill-1" fill="#AEAEAE"></path>
                <g id="Group-5" transform="translate(29.969697, 9.912094)" fill="#AEAEAE">
                    <path d="M10.6362455,1.00496061 L8.31533636,1.01402121 L6.30945758,8.0109 L5.22636667,3.74265758 C7.41694242,0.641839394 4.95733636,0.586081818 4.59351818,0.586081818 C4.56424545,0.586081818 4.51754848,0.587475758 4.46388182,0.592354545 C4.45063939,0.592354545 4.43948788,0.593051515 4.42624545,0.593748485 C4.30357879,0.60559697 4.14188182,0.629990909 3.96763939,0.679475758 C3.95648788,0.684354545 3.94603333,0.687142424 3.93418485,0.690627273 C3.75506364,0.746384848 3.57594242,0.832809091 3.42191212,0.963142424 L3.4017,0.981960606 C3.39960909,0.983354545 3.39821515,0.986839394 3.39682121,0.988233333 C4.13421515,2.18005152 4.3837303,3.70014242 4.09379091,5.17980909 L4.06312424,5.46347576 L0.176124242,21.0839606 L0.0625181818,29.4782636 C0.362215152,30.4240515 1.35330606,31.0506273 2.32627576,31.0506273 C3.47906364,31.0506273 4.6276697,30.0253848 4.6276697,28.7708394 L4.6276697,18.6682636 L5.32463939,18.6682636 L5.32463939,28.7708394 C5.32463939,30.0253848 6.58545758,31.0506273 7.73963939,31.0506273 C8.89382121,31.0506273 10.2034273,30.0253848 10.2034273,28.7708394 L10.2034273,18.4034152 L13.5760636,3.96011212 C13.9301242,2.3299 12.3075788,0.997293939 10.6362455,1.00496061" id="Fill-3"></path>
                </g>
                <path d="M9.1954,9.0551697 C7.12749091,9.0551697 5.45267273,7.37895758 5.45267273,5.31174545 C5.45267273,3.2452303 7.12749091,1.57041212 9.1954,1.57041212 C11.2626121,1.57041212 12.9367333,3.2452303 12.9367333,5.31174545 C12.9367333,7.37895758 11.2626121,9.0551697 9.1954,9.0551697" id="Fill-6" fill="#AEAEAE"></path>
                <g id="Group-10" transform="translate(0.000000, 9.912094)" fill="#AEAEAE">
                    <path d="M3.16835455,1.00496061 L5.48856667,1.01402121 L7.49444545,8.0109 L8.57753636,3.74265758 C6.38696061,0.641839394 8.84726364,0.586081818 9.21108182,0.586081818 C9.24035455,0.586081818 9.28635455,0.587475758 9.34002121,0.592354545 C9.35326364,0.592354545 9.36441515,0.593051515 9.37765758,0.593748485 C9.50102121,0.60559697 9.66202121,0.629990909 9.83626364,0.679475758 C9.84741515,0.684354545 9.85856667,0.687142424 9.87041515,0.690627273 C10.0488394,0.746384848 10.2286576,0.832809091 10.3819909,0.963142424 C10.3882636,0.969415152 10.3952333,0.975687879 10.4029,0.981960606 C10.4042939,0.983354545 10.4056879,0.986839394 10.4070818,0.988233333 C9.67038485,2.18005152 9.42017273,3.70014242 9.71011212,5.17980909 L9.74077879,5.46347576 L13.6277788,21.0839606 L13.7413848,29.4782636 C13.4423848,30.4240515 12.2686879,31.0506273 11.2936273,31.0506273 C10.1408394,31.0506273 8.80962727,30.0253848 8.80962727,28.7708394 L8.80962727,18.6682636 L8.11265758,18.6682636 L8.11265758,28.7708394 C8.11265758,30.0253848 6.85044545,31.0506273 5.69765758,31.0506273 C4.54347576,31.0506273 3.2338697,30.0253848 3.2338697,28.7708394 L3.2338697,18.4034152 L0.0445363636,3.96011212 C-0.308130303,2.3299 1.49632424,0.997293939 3.16835455,1.00496061" id="Fill-8"></path>
                </g>
                <path d="M22.1492091,8.63622121 C24.5342394,8.63622121 26.4662394,6.7021303 26.4662394,4.3171 C26.4662394,1.9320697 24.5342394,6.96969696e-05 22.1492091,6.96969696e-05 C19.7627848,6.96969696e-05 17.8307848,1.9320697 17.8307848,4.3171 C17.8307848,6.7021303 19.7627848,8.63622121 22.1492091,8.63622121" id="Fill-11" fill="#A8407F"></path>
                <g id="Group-15" transform="translate(11.151515, 9.912094)" fill="#A8407F">
                    <path d="M17.9068242,0.924948485 L15.6570061,0.917281818 L13.1987939,9.11225152 L11.7428242,4.15888788 C14.2707333,0.580645455 11.4361576,0.389675758 11.0158848,0.389675758 C10.5963091,0.389675758 7.75685455,0.454493939 10.2840667,4.03203939 L9.03509697,8.95752424 L6.71976364,0.883827273 L4.04200606,0.873372727 C2.11279394,0.864312121 0.285339394,2.40182727 0.693763636,4.28364545 L4.62746061,20.9495848 L4.62746061,32.9151606 C4.62746061,34.3620697 6.14685455,35.5455242 7.47946061,35.5455242 C8.81067273,35.5455242 10.2032182,34.3620697 10.2032182,32.9151606 L10.2032182,20.7593121 L10.9001879,20.7593121 L10.9001879,32.9151606 C10.9001879,34.3620697 12.2794909,35.5455242 13.610703,35.5455242 C14.9440061,35.5455242 16.2487333,34.5342212 16.2487333,33.0873121 L16.4194909,21.2513727 L20.6689152,4.19861515 C21.0383091,2.30494848 19.8339455,0.933312121 17.9068242,0.924948485" id="Fill-13"></path>
                </g>
            </g>
        </g>
    </g>
</svg>