<?xml version="1.0" encoding="UTF-8" standalone="no"?>
<svg width="41px" height="55px" viewBox="0 0 41 55" version="1.1" xmlns="http://www.w3.org/2000/svg" xmlns:xlink="http://www.w3.org/1999/xlink">
    <!-- Generator: Sketch 41.2 (35397) - http://www.bohemiancoding.com/sketch -->
    <title>Group 4</title>
    <desc>Created with Sketch.</desc>
    <defs>
        <polygon id="path-1" points="0.368920988 0.533246914 0.368920988 6.64255062 14.7282914 6.64255062 14.7282914 0.533246914"></polygon>
    </defs>
    <g id="Home" stroke="none" stroke-width="1" fill="none" fill-rule="evenodd">
        <g id="HOME---DESKTOP-1280" transform="translate(-58.000000, -1014.000000)">
            <g id="Group-4" transform="translate(58.000000, 1014.000000)">
                <g id="Group-6">
                    <path d="M30.7434543,7.92768148 C30.4527506,5.22024938 28.2774049,3.04838519 25.5334173,2.75884198 L21.7426642,2.48960741 C15.7318864,2.05674321 15.6645778,2.05500247 9.70312099,2.48380494 L5.76788642,2.7629037 C3.06219506,3.04838519 0.888590123,5.22024938 0.59788642,7.96887901 C-0.199953086,19.577879 -0.199953086,29.0492494 0.601948148,40.6994469 C0.888590123,43.4103605 3.06219506,45.5793235 5.80792346,45.8682864 L9.68687407,46.1433235 C12.664121,46.3568543 14.1582568,46.466521 15.6785037,46.466521 C17.2068741,46.466521 18.7166765,46.3568543 21.7264173,46.1381012 L25.5757753,45.8648049 C28.2803062,45.5793235 30.4527506,43.4103605 30.7469358,40.6599901 C31.5453556,29.0492494 31.5453556,19.577879 30.7434543,7.92768148" id="Fill-1" fill="#AEAEAE"></path>
                    <path d="M7.80049136,23.4042593 L6.46128148,19.3576173 C6.28256543,18.5377284 6.82335556,17.8681235 7.66645432,17.8727654 L13.6958,17.8936543 C14.534837,17.8982963 15.0895531,18.5748642 14.9299852,19.3993951 L13.8176519,23.3996173 L7.80049136,23.4042593 Z" id="Fill-3" fill="#FFFFFF"></path>
                    <path d="M12.567684,15.061237 C12.567684,14.0214346 11.7286469,13.1806568 10.6923259,13.1806568 C9.6542642,13.1806568 8.81290617,14.0214346 8.81290617,15.061237 C8.81290617,16.0969778 9.6542642,16.9377556 10.6923259,16.9377556 C11.7286469,16.9377556 12.567684,16.0969778 12.567684,15.061237" id="Fill-5" fill="#FFFFFF"></path>
                    <path d="M24.7584975,15.8562333 L18.2353617,15.8562333 C17.6841272,15.8562333 17.2367568,15.4094432 17.2367568,14.8564679 C17.2367568,14.3063938 17.6841272,13.8596037 18.2353617,13.8596037 L24.7584975,13.8596037 C25.3091519,13.8596037 25.7571025,14.3063938 25.7571025,14.8564679 C25.7571025,15.4094432 25.3091519,15.8562333 24.7584975,15.8562333" id="Fill-7" fill="#FFFFFF"></path>
                    <path d="M24.7584975,19.554437 L18.2353617,19.554437 C17.6841272,19.554437 17.2367568,19.1082272 17.2367568,18.5581531 C17.2367568,18.0051778 17.6841272,17.5583877 18.2353617,17.5583877 L24.7584975,17.5583877 C25.3091519,17.5583877 25.7571025,18.0051778 25.7571025,18.5581531 C25.7571025,19.1082272 25.3091519,19.554437 24.7584975,19.554437" id="Fill-9" fill="#FFFFFF"></path>
                    <path d="M24.7584975,23.2529889 L18.2353617,23.2529889 C17.6841272,23.2529889 17.2367568,22.806779 17.2367568,22.2572852 C17.2367568,21.7031494 17.6841272,21.2592605 18.2353617,21.2592605 L24.7584975,21.2592605 C25.3091519,21.2592605 25.7571025,21.7031494 25.7571025,22.2572852 C25.7571025,22.806779 25.3091519,23.2529889 24.7584975,23.2529889" id="Fill-11" fill="#FFFFFF"></path>
                    <path d="M7.80049136,37.8656951 L6.46128148,33.8161519 C6.28256543,32.9980037 6.82335556,32.3283988 7.66645432,32.3324605 L13.6958,32.3539296 C14.534837,32.3597321 15.0895531,33.0351395 14.9299852,33.8585099 L13.8176519,37.8558309 L7.80049136,37.8656951 Z" id="Fill-13" fill="#FFFFFF"></path>
                    <path d="M12.567684,29.520642 C12.567684,28.4808395 11.7286469,27.640642 10.6923259,27.640642 C9.6542642,27.640642 8.81290617,28.4808395 8.81290617,29.520642 C8.81290617,30.5534815 9.6542642,31.3977407 10.6923259,31.3977407 C11.7286469,31.3977407 12.567684,30.5534815 12.567684,29.520642" id="Fill-15" fill="#FFFFFF"></path>
                    <path d="M24.7584975,30.315116 L18.2353617,30.315116 C17.6841272,30.315116 17.2367568,29.8694864 17.2367568,29.3182519 C17.2367568,28.7646963 17.6841272,28.3202272 18.2353617,28.3202272 L24.7584975,28.3202272 C25.3091519,28.3202272 25.7571025,28.7646963 25.7571025,29.3182519 C25.7571025,29.8694864 25.3091519,30.315116 24.7584975,30.315116" id="Fill-17" fill="#FFFFFF"></path>
                    <path d="M24.7584975,34.0141901 L18.2353617,34.0141901 C17.6841272,34.0141901 17.2367568,33.569721 17.2367568,33.0161654 C17.2367568,32.4666716 17.6841272,32.0198815 18.2353617,32.0198815 L24.7584975,32.0198815 C25.3091519,32.0198815 25.7571025,32.4666716 25.7571025,33.0161654 C25.7571025,33.569721 25.3091519,34.0141901 24.7584975,34.0141901" id="Fill-19" fill="#FFFFFF"></path>
                    <path d="M24.7584975,37.7098407 L18.2353617,37.7098407 C17.6841272,37.7098407 17.2367568,37.2653716 17.2367568,36.7123963 C17.2367568,36.161742 17.6841272,35.7155321 18.2353617,35.7155321 L24.7584975,35.7155321 C25.3091519,35.7155321 25.7571025,36.161742 25.7571025,36.7123963 C25.7571025,37.2653716 25.3091519,37.7098407 24.7584975,37.7098407" id="Fill-21" fill="#FFFFFF"></path>
                    <polygon id="Fill-23" fill="#A8407F" points="9.0481963 6.11725309 9.05515926 1.13641358 22.2969741 1.15730247 22.2900111 6.13466049"></polygon>
                    <g id="Group-27" transform="translate(8.123457, 0.047058)">
                        <mask id="mask-2" fill="white">
                            <use xlink:href="#path-1"></use>
                        </mask>
                        <g id="Clip-26"></g>
                        <path d="M1.48009383,5.51629136 L13.613637,5.53369877 L13.6194395,1.66345185 L1.4847358,1.64256296 L1.48009383,5.51629136 Z M14.1666123,6.64255062 L14.1666123,6.64255062 L0.924797531,6.62456296 C0.617846914,6.62456296 0.368920988,6.37331605 0.368920988,6.07042716 L0.376464198,1.08958765 C0.377044444,0.939883951 0.435069136,0.799464198 0.540674074,0.698501235 C0.643958025,0.591735802 0.784958025,0.533130864 0.931760494,0.533130864 L0.932340741,0.533130864 L14.1735753,0.556340741 C14.4805259,0.556340741 14.7282914,0.805266667 14.7282914,1.1098963 L14.7230691,6.08725432 C14.7213284,6.23579753 14.6627235,6.37679753 14.5600198,6.48066173 C14.4549951,6.58510617 14.3139951,6.64255062 14.1666123,6.64255062 L14.1666123,6.64255062 Z" id="Fill-25" fill="#FFFFFF" mask="url(#mask-2)"></path>
                    </g>
                </g>
                <path d="M18.3901053,49.6767163 C17.0652629,52.0999586 18.2258884,54.0643846 20.9912275,54.0643846 L37.7406152,54.0643846 C40.5020177,54.0643846 41.6686811,52.1038021 40.3417373,49.6767163 L31.7647607,33.9887428 C30.4399183,31.5655005 28.2940257,31.561657 26.967082,33.9887428 L18.3901053,49.6767163 Z" id="Shape-Copy" fill="#FFFFFF"></path>
                <path d="M22.2973267,46.4665769 C20.9719024,48.8908834 22.130643,50.8561721 24.8982425,50.8561721 L34.3644691,50.8561721 C37.1263395,50.8561721 38.2957335,48.8998904 36.9653849,46.4665769 L32.0312487,37.4416486 C30.7058244,35.0173421 28.5618115,35.0083351 27.2314629,37.4416486 L22.2973267,46.4665769 Z M29.8296394,39.3971285 C30.2776308,39.3971285 30.6407996,39.7688214 30.6407996,40.2087772 L30.6407996,44.2504266 C30.6407996,44.6986878 30.2807541,45.0620753 29.8296394,45.0620753 L29.8296394,45.0620753 C29.381648,45.0620753 29.0184792,44.6903823 29.0184792,44.2504266 L29.0184792,40.2087772 C29.0184792,39.760516 29.3785247,39.3971285 29.8296394,39.3971285 L29.8296394,39.3971285 Z M28.621912,47.5469356 C28.621912,46.9885337 29.0761617,46.5353379 29.6358622,46.5353379 C30.1955628,46.5353379 30.6498125,46.9885337 30.6498125,47.5469356 C30.6498125,48.1053375 30.1955628,48.5585332 29.6358622,48.5585332 C29.0761617,48.5585332 28.621912,48.1053375 28.621912,47.5469356 Z" id="Shape" fill="#A8407F"></path>
            </g>
        </g>
    </g>
</svg>